{
  "coal_cluster":{
    "type":"cluster","stone":"minecraft:stone","ore":
    [
      {"block":"minecraft:coal_ore","weight":100,"comment":"coal"},
      {"block":"candymod:cookie_ore_block","meta":"0","weight":3,"comment":"cookie"}
    ],
    "count":1,"rarity":1,"density":140,"clusters":8,"vertical_size":22,"horizontal_size":7,
    "min_y":75,"max_y":255
  },
  "iron_cluster":{
    "type":"cluster","stone":"minecraft:stone","ore":
    [
      {"block":"minecraft:iron_ore","weight":50,"comment":"iron"},
      {"block":"mekanism:oreblock","meta":"0","weight":25,"comment":"osmium"},
      {"block":"minecraft:coal_ore","weight":25,"comment":"coal"},
      {"block":"candymod:cookie_ore_block","meta":"0","weight":3,"comment":"cookie"}
    ],
    "count":1,"rarity":2,"density":80,"clusters":4,"vertical_size":7,"horizontal_size":15,
    "min_y":52,"max_y":255
  },
  "copper_cluster":{
    "type":"cluster","stone":"minecraft:stone","ore":
    [
      {"block":"thermalfoundation:ore","meta":"0","weight":60,"comment":"copper"},
      {"block":"thermalfoundation:ore","meta":"1","weight":20,"comment":"tin"},
      {"block":"thermalfoundation:ore","meta":"4","weight":15,"comment":"aluminum"},
      {"block":"thermalfoundation:ore","meta":"1","weight":5,"comment":"zinc"},
      {"block":"candymod:cookie_ore_block","meta":"0","weight":3,"comment":"cookie"}
    ],
    "count":1,"rarity":4,"density":80,"clusters":4,"vertical_size":15,"horizontal_size":6,
    "min_y":50,"max_y":60
  },
  "lead_cluster":{
    "type":"cluster","stone":"minecraft:stone","ore":
    [
      {"block":"thermalfoundation:ore","meta":"3","weight":30,"comment":"lead"},
      {"block":"thermalfoundation:ore","meta":"2","weight":25,"comment":"silver"},
      {"block":"fp:erze","meta":"4","weight":25,"comment":"magnetite"},
      {"block":"thermalfoundation:ore","meta":"5","weight":20,"comment":"nickel"},
      {"block":"candymod:cookie_ore_block","meta":"0","weight":3,"comment":"cookie"}
    ],
    "count":1,"rarity":4,"density":80,"clusters":3,"vertical_size":6,"horizontal_size":10,
    "min_y":40,"max_y":50
  },
  "resonating_cluster":{
    "type":"cluster","stone":"minecraft:stone","ore":
    [
      {"block":"deepresonance:resonating_ore","meta":"0","weight":50,"comment":"resonating"},
      {"block":"forestry:resources","meta":"0","weight":50,"comment":"apatite"},
      {"block":"candymod:cookie_ore_block","meta":"0","weight":3,"comment":"cookie"}
    ],
    "count":1,"rarity":4,"density":80,"clusters":3,"vertical_size":6,"horizontal_size":9,
    "min_y":30,"max_y":45
  },
  "dark_cluster":{
    "type":"cluster","stone":"minecraft:stone","ore":
    [
      {"block":"actuallyadditions:block_misc","meta":"3","weight":40,"comment":"black quartz"},
      {"block":"thermalfoundation:ore_fluid","meta":"1","weight":20,"comment":"oil shale"},
      {"block":"evilcraft:dark_ore","meta":"0","weight":20,"comment":"dark"},
      {"block":"thermalfoundation:ore","meta":"8","weight":20,"comment":"mithril"},
      {"block":"candymod:cookie_ore_block","meta":"0","weight":3,"comment":"cookie"}
    ],
    "count":1,"rarity":4,"density":80,"clusters":5,"vertical_size":8,"horizontal_size":8,
    "min_y":25,"max_y":35
  },
  "redstone_cluster":{
    "type":"cluster","stone":"minecraft:stone","ore":
    [
      {"block":"minecraft:redstone_ore","weight":50,"comment":"redstone"},
      {"block":"minecraft:gold_ore","weight":26,"comment":"gold"},
      {"block":"thermalfoundation:ore","meta":"6","weight":12,"comment":"platinum"},
      {"block":"minecraft:lapis_ore","weight":12,"comment":"lapis"},
      {"block":"candymod:cookie_ore_block","meta":"0","weight":3,"comment":"cookie"}
    ],
    "count":1,"rarity":4,"density":80,"clusters":3,"vertical_size":5,"horizontal_size":15,
    "min_y":20,"max_y":30
  },
  "uranium_cluster":{
    "type":"cluster","stone":"minecraft:stone","ore":
    [
      {"block":"ic2:resource","meta":"4","weight":50,"comment":"uranium"},
      {"block":"thermalfoundation:ore","meta":"7","weight":30,"comment":"iridium"},
      {"block":"vulcanite:vulcanite_ore","weight":20,"comment":"vulcanite"},
      {"block":"candymod:cookie_ore_block","meta":"0","weight":3,"comment":"cookie"}
    ],
    "count":1,"rarity":4,"density":80,"clusters":4,"vertical_size":9,"horizontal_size":7,
    "min_y":12,"max_y":25
  },
  "diamond_cluster":{
    "type":"cluster","stone":"minecraft:stone","ore":
    [
      {"block":"minecraft:diamond_ore","weight":55,"comment":"diamond"},
      {"block":"minecraft:emerald_ore","weight":30,"comment":"emerald"},
      {"block":"scalinghealth:crystalore","weight":10,"comment":"life crystal"},
      {"block":"draconicevolution:draconium_ore","weight":5,"comment":"draconium"},
      {"block":"candymod:cookie_ore_block","meta":"0","weight":3,"comment":"cookie"}
    ],
    "count":1,"rarity":4,"density":60,"clusters":2,"vertical_size":5,"horizontal_size":10,
    "min_y":2,"max_y":12
  }
}