{
  "biome": "biomesoplenty:undergarden",
  "weight": 4,
  "enabled": true,
  "genDefaultFeatures": true,
  "entities": [
    {
      "entity": "minecraft:ghast",
      "creatureType": "monster",
      "weight": 50,
      "minGroupCount": 4,
      "maxGroupCount": 4,
      "spawn": true
    },
    {
      "entity": "minecraft:zombie_pigman",
      "creatureType": "monster",
      "weight": 100,
      "minGroupCount": 4,
      "maxGroupCount": 4,
      "spawn": true
    },
    {
      "entity": "minecraft:magma_cube",
      "creatureType": "monster",
      "weight": 2,
      "minGroupCount": 4,
      "maxGroupCount": 4,
      "spawn": true
    },
    {
      "entity": "minecraft:enderman",
      "creatureType": "monster",
      "weight": 1,
      "minGroupCount": 4,
      "maxGroupCount": 4,
      "spawn": true
    },
    {
      "entity": "ebwizardry:evil_wizard",
      "creatureType": "monster",
      "weight": 3,
      "minGroupCount": 1,
      "maxGroupCount": 1,
      "spawn": true
    },
    {
      "entity": "natura:nitrocreeper",
      "creatureType": "monster",
      "weight": 8,
      "minGroupCount": 4,
      "maxGroupCount": 6,
      "spawn": true
    },
    {
      "entity": "primal:creeper_nether",
      "creatureType": "monster",
      "weight": 3,
      "minGroupCount": 0,
      "maxGroupCount": 1,
      "spawn": true
    },
    {
      "entity": "natura:imp",
      "creatureType": "creature",
      "weight": 10,
      "minGroupCount": 8,
      "maxGroupCount": 12,
      "spawn": true
    }
  ],
  "features": []
}